2 Word Frequency Analysis | Quran Analytics with R
…
freq_by_rank_ESI %>% filter(word == "trust")

## # A tibble: 3 × 6
##   surah_title_en word      n total  rank `term frequency`
##   <chr>          <chr> <int> <int> <int>            <dbl>
## 1 Aal-i-Imraan   trust     1  2025   737         0.000494
## 2 Al-Ahzaab      trust     1   793   387         0.00126 
## 3 Al-Baqara      trust     1  3401  1165         0.000294

freq_by_rank_EYA %>% filter(word == "trust")

## # A tibble: 27 × 6
##    surah_title_en word      n total  rank `term frequency`
##    <chr>          <chr> <int> <int> <int>            <dbl>
##  1 Ash-Shu'araa   trust     6   929    26         0.00646 
##  2 Aal-i-Imraan   trust     5  2448    88         0.00204 
##  3 Yusuf          trust     5  1195    36         0.00418 
##  4 Al-Anfaal      trust     4   893    36         0.00448 
##  5 Al-Baqara      trust     4  4120   233         0.000971
##  6 Ibrahim        trust     4   639    21         0.00626 
##  7 Al-Ahzaab      trust     3   928    62         0.00323 
##  8 Hud            trust     3  1314   108         0.00228 
##  9 Yunus          trust     3  1171    97         0.00256 
## 10 Al-Maaida      trust     2  1995   301         0.00100 
## # ℹ 17 more rows
…
